{
  "rasa_nlu_data": {
    "regex_features": [],
    "lookup_tables": [],
    "common_examples": [
      {
        "text": "hey",
        "intent": "greet"
      },
      {
        "text": "howdy",
        "intent": "greet"
      },
      {
        "text": "hey there",
        "intent": "greet"
      },
      {
        "text": "hello",
        "intent": "greet"
      },
      {
        "text": "hi",
        "intent": "greet"
      },
      {
        "text": "hii",
        "intent": "greet"
      },
      {
        "text": "yes",
        "intent": "affirm"
      },
      {
        "text": "yep",
        "intent": "affirm"
      },
      {
        "text": "yeah",
        "intent": "affirm"
      },
      {
        "text": "bye",
        "intent": "goodbye"
      },
      {
        "text": "goodbye",
        "intent": "goodbye"
      },
      {
        "text": "good bye",
        "intent": "goodbye"
      },
      {
        "text": "by",
        "intent": "goodbye"
      },
      {
        "text": "byy",
        "intent": "goodbye"
      },
      {
        "text": "stop",
        "intent": "goodbye"
      },
      {
        "text": "end",
        "intent": "goodbye"
      },
      {
        "text": "indeed",
        "intent": "affirm"
      },
      {
        "text": "that's right",
        "intent": "affirm"
      },
      {
        "text": "ok",
        "intent": "affirm"
      },
      {
        "text": "great",
        "intent": "affirm"
      },
      {
        "text": "indeed",
        "intent": "affirm"
      },
      {
        "text": "that's right",
        "intent": "affirm"
      },
      {
        "text": "ok",
        "intent": "affirm"
      },
      {
        "text": "great",
        "intent": "affirm"
      },
      {
        "text": "Thank you",
        "intent": "thankyou"
      },
      {
        "text": "thanks",
        "intent": "thankyou"
      },
      {
        "text": "thank you very much",
        "intent": "thankyou"
      },
      {
        "text": "Thank you",
        "intent": "thankyou"
      },
      {
        "text": "thanks",
        "intent": "thankyou"
      },
      {
        "text": "thank you very much",
        "intent": "thankyou"
      },
      {
        "text": "Who are responsible for Service Strategy Processes",
        "intent": "Who are responsible for Service Strategy Processes"
      },
      {
        "text": "What is a Service catalogue",
        "intent": "What is a Service catalogue"
      },
      {
        "text": "What are the entry criteria for a Service Strategy Process",
        "intent": "What are the entry criteria for a Service Strategy Process"
      },
      {
        "text": "What are the inputs for a Service Strategy Process",
        "intent": "What are the inputs for a Service Strategy Process"
      },
      {
        "text": "What are the exit criteria for a Service Strategy Process",
        "intent": "What are the exit criteria for a Service Strategy Process"
      },
      {
        "text": "What are the outputs for a Service Strategy Process",
        "intent": "What are the outputs for a Service Strategy Process"
      },
      {
        "text": "What are the templates for a Service Strategy Process",
        "intent": "What are the templates for a Service Strategy Process"
      },
      {
        "text": "Who reviews a Organizational Service catalogue",
        "intent": "Who reviews a Organizational Service catalogue"
      },
      {
        "text": "Who approves a Organizational Service catalogue",
        "intent": "Organizational Service catalogue"
      },
      {
        "text": "Who reviews a Program Service catalogue",
        "intent": "Organizational Service catalogue"
      },
      {
        "text": "Who approves a Program Service catalogue",
        "intent": "Organizational Service catalogue"
      },
      {
        "text": "Who are responsible for Service Strategy Processes",
        "intent": "Who are responsible for Service Strategy Processes"
      },
      {
        "text": "What is a Service catalogue",
        "intent": "What is a Service catalogue"
      },
      {
        "text": "What are the entry criteria for a Service Strategy Process",
        "intent": "What are the entry criteria for a Service Strategy Process"
      },
      {
        "text": "What are the inputs for a Service Strategy Process",
        "intent": "What are the inputs for a Service Strategy Process"
      },
      {
        "text": "What are the exit criteria for a Service Strategy Process",
        "intent": "What are the exit criteria for a Service Strategy Process"
      },
      {
        "text": "What are the outputs for a Service Strategy Process",
        "intent": "What are the outputs for a Service Strategy Process"
      },
      {
        "text": "What are the templates for a Service Strategy Process",
        "intent": "What are the templates for a Service Strategy Process"
      },
      {
        "text": "Who reviews a Organizational Service catalogue",
        "intent": "Who reviews a Organizational Service catalogue"
      },
      {
        "text": "Who approves a Organizational Service catalogue",
        "intent": "Organizational Service catalogue"
      },
      {
        "text": "Who reviews a Program Service catalogue",
        "intent": "Organizational Service catalogue"
      },
      {
        "text": "Who approves a Program Service catalogue",
        "intent": "Organizational Service catalogue"
      },
      {
        "text": "Who are responsible for Service Strategy Processes",
        "intent": "Who are responsible for Service Strategy Processes"
      },
      {
        "text": "What is a Service catalogue",
        "intent": "What is a Service catalogue"
      },
      {
        "text": "What are the entry criteria for a Service Strategy Process",
        "intent": "What are the entry criteria for a Service Strategy Process"
      },
      {
        "text": "What are the inputs for a Service Strategy Process",
        "intent": "What are the inputs for a Service Strategy Process"
      },
      {
        "text": "What are the exit criteria for a Service Strategy Process",
        "intent": "What are the exit criteria for a Service Strategy Process"
      },
      {
        "text": "What are the outputs for a Service Strategy Process",
        "intent": "What are the outputs for a Service Strategy Process"
      },
      {
        "text": "What are the templates for a Service Strategy Process",
        "intent": "What are the templates for a Service Strategy Process"
      },
      {
        "text": "Who reviews a Organizational Service catalogue",
        "intent": "Who reviews a Organizational Service catalogue"
      },
      {
        "text": "Who approves a Organizational Service catalogue",
        "intent": "Organizational Service catalogue"
      },
      {
        "text": "Who reviews a Program Service catalogue",
        "intent": "Organizational Service catalogue"
      },
      {
        "text": "Who approves a Program Service catalogue",
        "intent": "Organizational Service catalogue"
      },
      {
        "text": "Who are responsible for Service Strategy Processes",
        "intent": "Who are responsible for Service Strategy Processes"
      },
      {
        "text": "What is a Service catalogue",
        "intent": "What is a Service catalogue"
      },
      {
        "text": "What are the entry criteria for a Service Strategy Process",
        "intent": "What are the entry criteria for a Service Strategy Process"
      },
      {
        "text": "What are the inputs for a Service Strategy Process",
        "intent": "What are the inputs for a Service Strategy Process"
      },
      {
        "text": "What are the exit criteria for a Service Strategy Process",
        "intent": "What are the exit criteria for a Service Strategy Process"
      },
      {
        "text": "What are the outputs for a Service Strategy Process",
        "intent": "What are the outputs for a Service Strategy Process"
      },
      {
        "text": "What are the templates for a Service Strategy Process",
        "intent": "What are the templates for a Service Strategy Process"
      },
      {
        "text": "Who reviews a Organizational Service catalogue",
        "intent": "Who reviews a Organizational Service catalogue"
      },
      {
        "text": "Who approves a Organizational Service catalogue",
        "intent": "Organizational Service catalogue"
      },
      {
        "text": "Who reviews a Program Service catalogue",
        "intent": "Organizational Service catalogue"
      },
      {
        "text": "Who approves a Program Service catalogue",
        "intent": "Organizational Service catalogue"
      },
      {
        "text": "Who are responsible for Service Strategy Processes",
        "intent": "Who are responsible for Service Strategy Processes"
      },
      {
        "text": "What is a Service catalogue",
        "intent": "What is a Service catalogue"
      },
      {
        "text": "What are the entry criteria for a Service Strategy Process",
        "intent": "What are the entry criteria for a Service Strategy Process"
      },
      {
        "text": "What are the inputs for a Service Strategy Process",
        "intent": "What are the inputs for a Service Strategy Process"
      },
      {
        "text": "What are the exit criteria for a Service Strategy Process",
        "intent": "What are the exit criteria for a Service Strategy Process"
      },
      {
        "text": "What are the outputs for a Service Strategy Process",
        "intent": "What are the outputs for a Service Strategy Process"
      },
      {
        "text": "What are the templates for a Service Strategy Process",
        "intent": "What are the templates for a Service Strategy Process"
      },
      {
        "text": "Who reviews a Organizational Service catalogue",
        "intent": "Who reviews a Organizational Service catalogue"
      },
      {
        "text": "Who approves a Organizational Service catalogue",
        "intent": "Organizational Service catalogue"
      },
      {
        "text": "Who reviews a Program Service catalogue",
        "intent": "Organizational Service catalogue"
      },
      {
        "text": "Who approves a Program Service catalogue",
        "intent": "Organizational Service catalogue"
      },
      {
        "text": "Who are responsible for Service Strategy Processes",
        "intent": "Who are responsible for Service Strategy Processes"
      },
      {
        "text": "What is a Service catalogue",
        "intent": "What is a Service catalogue"
      },
      {
        "text": "What are the entry criteria for a Service Strategy Process",
        "intent": "What are the entry criteria for a Service Strategy Process"
      },
      {
        "text": "What are the inputs for a Service Strategy Process",
        "intent": "What are the inputs for a Service Strategy Process"
      },
      {
        "text": "What are the exit criteria for a Service Strategy Process",
        "intent": "What are the exit criteria for a Service Strategy Process"
      },
      {
        "text": "What are the outputs for a Service Strategy Process",
        "intent": "What are the outputs for a Service Strategy Process"
      },
      {
        "text": "What are the templates for a Service Strategy Process",
        "intent": "What are the templates for a Service Strategy Process"
      },
      {
        "text": "Who reviews a Organizational Service catalogue",
        "intent": "Who reviews a Organizational Service catalogue"
      },
      {
        "text": "Who approves a Organizational Service catalogue",
        "intent": "Organizational Service catalogue"
      },
      {
        "text": "Who reviews a Program Service catalogue",
        "intent": "Organizational Service catalogue"
      },
      {
        "text": "Who approves a Program Service catalogue",
        "intent": "Organizational Service catalogue"
      },
      {
        "text": "Purpose of Capacity and Availability Management Procedure",
        "entities": [
          {
            "end": 7,
            "entity": "Purpose",
            "start": 0,
            "value": "Purpose"
          },
          {
            "end": 57,
            "entity": "Capacity and Availability Management Procedure",
            "start": 11,
            "value": "Capacity and Availability Management Procedure"
          }
        ],
        "intent": "cap_avil_intro_text"
      },
      {
        "text": "Purpose of CAMP",
        "entities": [
          {
            "end": 7,
            "entity": "Purpose",
            "start": 0,
            "value": "Purpose"
          },
          {
            "end": 15,
            "entity": "Capacity and Availability Management Procedure",
            "start": 11,
            "value": "CAMP"
          }
        ],
        "intent": "cap_avil_intro_text"
      },
      {
        "text": "introduction of Capacity and Availability Management Procedure",
        "entities": [
          {
            "end": 12,
            "entity": "Purpose",
            "start": 0,
            "value": "introduction"
          },
          {
            "end": 57,
            "entity": "Capacity and Availability Management Procedure",
            "start": 11,
            "value": "Capacity and Availability Management Procedure"
          }
        ],
        "intent": "cap_avil_intro_text"
      },
      {
        "text": "introduction of CAMP",
        "entities": [
          {
            "end": 12,
            "entity": "Purpose",
            "start": 0,
            "value": "introduction"
          },
          {
            "end": 15,
            "entity": "Capacity and Availability Management Procedure",
            "start": 11,
            "value": "CAMP"
          }
        ],
        "intent": "cap_avil_intro_text"
      },
      {
        "text": "Overview of Capacity and Availability Management Procedure",
        "entities": [
          {
            "end": 8,
            "entity": "Purpose",
            "start": 0,
            "value": "Overview"
          },
          {
            "end": 57,
            "entity": "Capacity and Availability Management Procedure",
            "start": 11,
            "value": "Capacity and Availability Management Procedure"
          }
        ],
        "intent": "cap_avil_intro_text"
      },
      {
        "text": "Overview of CAMP",
        "entities": [
          {
            "end": 8,
            "entity": "Purpose",
            "start": 0,
            "value": "Overview"
          },
          {
            "end": 15,
            "entity": "Capacity and Availability Management Procedure",
            "start": 11,
            "value": "CAMP"
          }
        ],
        "intent": "cap_avil_intro_text"
      },
      {
        "text": "Scope of Capacity and Availability Management Procedure",
        "entities": [
          {
            "end": 5,
            "entity": "Scope",
            "start": 0,
            "value": "Scope"
          },
          {
            "end": 55,
            "entity": "Capacity and Availability Management Procedure",
            "start": 9,
            "value": "Capacity and Availability Management Procedure"
          }
        ],
        "intent": "cap_avil_scope_text"
      },
      {
        "text": "Scope of CAMP",
        "entities": [
          {
            "end": 5,
            "entity": "Scope",
            "start": 0,
            "value": "Scope"
          },
          {
            "end": 13,
            "entity": "Capacity and Availability Management Procedure",
            "start": 9,
            "value": "CAMP"
          }
        ],
        "intent": "cap_avil_scope_text"
      },
      {
        "text": "Template of Capacity and Availability Management Procedure",
        "entities": [
          {
            "end": 8,
            "entity": "Template",
            "start": 0,
            "value": "Template"
          },
          {
            "end": 58,
            "entity": "Capacity and Availability Management Procedure",
            "start": 12,
            "value": "Capacity and Availability Management Procedure"
          }
        ],
        "intent": "Template of Capacity and Availability Management Procedure"
      },
      {
        "text": "Template of CAMP",
        "entities": [
          {
            "end": 8,
            "entity": "Template",
            "start": 0,
            "value": "Template"
          },
          {
            "end": 16,
            "entity": "Capacity and Availability Management Procedure",
            "start": 12,
            "value": "CAMP"
          }
        ],
        "intent": "Template of Capacity and Availability Management Procedure"
      },
      {
        "text": "Introduction for INCIDENT RESOLUTION  AND PREVENTION",
        "entities": [
          {
            "end": 12,
            "entity": "Introduction",
            "start": 0,
            "value": "Introduction"
          },
          {
            "end": 52,
            "entity": "INCIDENT RESOLUTION  AND PREVENTION",
            "start": 17,
            "value": "INCIDENT RESOLUTION  AND PREVENTION"
          }
        ],
        "intent": "INCIDENT RESOLUTION  AND PREVENTION"
      },
      {
        "text": "Overview for INCIDENT RESOLUTION  AND PREVENTION",
        "entities": [
          {
            "end": 8,
            "entity": "Introduction",
            "start": 0,
            "value": "Overview"
          },
          {
            "end": 48,
            "entity": "INCIDENT RESOLUTION  AND PREVENTION",
            "start": 13,
            "value": "INCIDENT RESOLUTION  AND PREVENTION"
          }
        ],
        "intent": "INCIDENT RESOLUTION  AND PREVENTION"
      },
      {
        "text": "Purpose for INCIDENT RESOLUTION  AND PREVENTION",
        "entities": [
          {
            "end": 7,
            "entity": "Introduction",
            "start": 0,
            "value": "Purpose"
          },
          {
            "end": 48,
            "entity": "INCIDENT RESOLUTION  AND PREVENTION",
            "start": 13,
            "value": "INCIDENT RESOLUTION  AND PREVENTION"
          }
        ],
        "intent": "INCIDENT RESOLUTION  AND PREVENTION"
      },
      {
        "text": "Introduction for IRP",
        "entities": [
          {
            "end": 12,
            "entity": "Introduction",
            "start": 0,
            "value": "Introduction"
          },
          {
            "end": 20,
            "entity": "INCIDENT RESOLUTION  AND PREVENTION",
            "start": 17,
            "value": "IRP"
          }
        ],
        "intent": "INCIDENT RESOLUTION  AND PREVENTION"
      },
      {
        "text": "Overview for IRP",
        "entities": [
          {
            "end": 8,
            "entity": "Introduction",
            "start": 0,
            "value": "Overview"
          },
          {
            "end": 16,
            "entity": "INCIDENT RESOLUTION  AND PREVENTION",
            "start": 13,
            "value": "IRP"
          }
        ],
        "intent": "INCIDENT RESOLUTION  AND PREVENTION"
      },
      {
        "text": "Purpose for IRP",
        "entities": [
          {
            "end": 7,
            "entity": "Introduction",
            "start": 0,
            "value": "Purpose"
          },
          {
            "end": 16,
            "entity": "INCIDENT RESOLUTION  AND PREVENTION",
            "start": 13,
            "value": "IRP"
          }
        ],
        "intent": "INCIDENT RESOLUTION  AND PREVENTION"
      },
      {
        "text": "Scope of INCIDENT RESOLUTION  AND PREVENTION ",
        "entities": [
          {
            "end": 5,
            "entity": "Scope",
            "start": 0,
            "value": "Scope"
          },
          {
            "end": 45,
            "entity": "INCIDENT RESOLUTION  AND PREVENTION ",
            "start": 9,
            "value": "INCIDENT RESOLUTION  AND PREVENTION "
          }
        ],
        "intent": "Scope of INCIDENT RESOLUTION  AND PREVENTION"
      },
      {
        "text": "Scope of IRP",
        "entities": [
          {
            "end": 5,
            "entity": "Scope",
            "start": 0,
            "value": "Scope"
          },
          {
            "end": 12,
            "entity": "INCIDENT RESOLUTION  AND PREVENTION ",
            "start": 9,
            "value": "IRP"
          }
        ],
        "intent": "Scope of INCIDENT RESOLUTION  AND PREVENTION"
      },
      {
        "text": "List of Procedures for INCIDENT RESOLUTION  AND PREVENTION",
        "entities": [
          {
            "end": 18,
            "entity": "List of Procedures",
            "start": 0,
            "value": "List of Procedures"
          },
          {
            "end": 58,
            "entity": "INCIDENT RESOLUTION  AND PREVENTION",
            "start": 23,
            "value": "INCIDENT RESOLUTION  AND PREVENTION"
          }
        ],
        "intent": "List of Procedures for INCIDENT RESOLUTION  AND PREVENTION"
      },
      {
        "text": "list of procedures for incident resolution  and prevention",
        "entities": [
          {
            "end": 18,
            "entity": "List of Procedures",
            "start": 0,
            "value": "list of procedures"
          },
          {
            "end": 58,
            "entity": "INCIDENT RESOLUTION  AND PREVENTION",
            "start": 23,
            "value": "incident resolution  and prevention"
          }
        ],
        "intent": "List of Procedures for INCIDENT RESOLUTION  AND PREVENTION"
      },
      {
        "text": "list of procedures for IRP",
        "entities": [
          {
            "end": 18,
            "entity": "List of Procedures",
            "start": 0,
            "value": "list of procedures"
          },
          {
            "end": 26,
            "entity": "INCIDENT RESOLUTION  AND PREVENTION",
            "start": 23,
            "value": "IRP"
          }
        ],
        "intent": "List of Procedures for INCIDENT RESOLUTION  AND PREVENTION"
      },
      {
        "text": "Support Processes of INCIDENT RESOLUTION  AND PREVENTION",
        "entities": [
          {
            "end": 17,
            "entity": "Support Processes",
            "start": 0,
            "value": "Support Processes"
          },
          {
            "end": 56,
            "entity": "INCIDENT RESOLUTION  AND PREVENTION",
            "start": 21,
            "value": "INCIDENT RESOLUTION  AND PREVENTION"
          }
        ],
        "intent": "Support Processes of INCIDENT RESOLUTION  AND PREVENTION"
      },
      {
        "text": "Support Processes of IRP",
        "entities": [
          {
            "end": 17,
            "entity": "Support Processes",
            "start": 0,
            "value": "Support Processes"
          },
          {
            "end": 24,
            "entity": "INCIDENT RESOLUTION  AND PREVENTION",
            "start": 21,
            "value": "IRP"
          }
        ],
        "intent": "Support Processes of INCIDENT RESOLUTION  AND PREVENTION"
      },
      {
        "text": "Overview of Incident Resolution & Prevention",
        "entities": [
          {
            "end": 8,
            "entity": "Overview",
            "start": 0,
            "value": "Overview"
          },
          {
            "end": 44,
            "entity": "Incident Resolution & Prevention",
            "start": 12,
            "value": "Incident Resolution & Prevention"
          }
        ],
        "intent": "Overview of Incident Resolution & Prevention"
      },
      {
        "text": "Overview of IRP",
        "entities": [
          {
            "end": 8,
            "entity": "Overview",
            "start": 0,
            "value": "Overview"
          },
          {
            "end": 15,
            "entity": "Incident Resolution & Prevention",
            "start": 12,
            "value": "IRP"
          }
        ],
        "intent": "Overview of Incident Resolution & Prevention"
      },
      {
        "text": "Criteria to identify an Incident",
        "entities": [
          {
            "end": 8,
            "entity": "Criteria",
            "start": 0,
            "value": "Criteria"
          },
          {
            "end": 32,
            "entity": "identify an Incident",
            "start": 12,
            "value": "identify an Incident"
          }
        ],
        "intent": "Criteria to identify an Incident"
      },
      {
        "text": "Examples of Categories of Incidents",
        "entities": [
          {
            "end": 8,
            "entity": "Examples",
            "start": 0,
            "value": "Examples"
          },
          {
            "end": 35,
            "entity": "Categories of Incidents",
            "start": 12,
            "value": "Categories of Incidents"
          }
        ],
        "intent": "Examples of Categories of Incidents"
      },
      {
        "text": "Prioritization of Incidents",
        "entities": [
          {
            "end": 14,
            "entity": "Prioritization",
            "start": 0,
            "value": "Prioritization"
          },
          {
            "end": 27,
            "entity": "Incidents",
            "start": 18,
            "value": "Incidents"
          }
        ],
        "intent": "Prioritization of Incidents"
      },
      {
        "text": "Template of INCIDENT RESOLUTION  AND PREVENTION",
        "entities": [
          {
            "end": 8,
            "entity": "Template",
            "start": 0,
            "value": "Template"
          },
          {
            "end": 47,
            "entity": "INCIDENT RESOLUTION  AND PREVENTION",
            "start": 12,
            "value": "INCIDENT RESOLUTION  AND PREVENTION"
          }
        ],
        "intent": "INCIDENT RESOLUTION  AND PREVENTION"
      },
      {
        "text": "Purpose of Capacity and Availability Management Procedure",
        "entities": [
          {
            "end": 7,
            "entity": "Purpose",
            "start": 0,
            "value": "Purpose"
          },
          {
            "end": 57,
            "entity": "Capacity and Availability Management Procedure",
            "start": 11,
            "value": "Capacity and Availability Management Procedure"
          }
        ],
        "intent": "cap_avil_intro_text"
      },
      {
        "text": "Scope of Capacity and Availability Management Procedure",
        "entities": [
          {
            "end": 5,
            "entity": "Scope",
            "start": 0,
            "value": "Scope"
          },
          {
            "end": 55,
            "entity": "Capacity and Availability Management Procedure",
            "start": 9,
            "value": "Capacity and Availability Management Procedure"
          }
        ],
        "intent": "cap_avil_scope_text"
      },
      {
        "text": "Template of Capacity and Availability Management Procedure",
        "entities": [
          {
            "end": 8,
            "entity": "Template",
            "start": 0,
            "value": "Template"
          },
          {
            "end": 58,
            "entity": "Capacity and Availability Management Procedure",
            "start": 12,
            "value": "Capacity and Availability Management Procedure"
          }
        ],
        "intent": "Template of Capacity and Availability Management Procedure"
      },
      {
        "text": "Template of CAMP",
        "entities": [
          {
            "end": 8,
            "entity": "Template",
            "start": 0,
            "value": "Template"
          },
          {
            "end": 16,
            "entity": "Capacity and Availability Management Procedure",
            "start": 12,
            "value": "CAMP"
          }
        ],
        "intent": "Template of Capacity and Availability Management Procedure"
      },
      {
        "text": "Introduction for INCIDENT RESOLUTION  AND PREVENTION",
        "entities": [
          {
            "end": 12,
            "entity": "Introduction",
            "start": 0,
            "value": "Introduction"
          },
          {
            "end": 52,
            "entity": "INCIDENT RESOLUTION  AND PREVENTION",
            "start": 17,
            "value": "INCIDENT RESOLUTION  AND PREVENTION"
          }
        ],
        "intent": "INCIDENT RESOLUTION  AND PREVENTION"
      },
      {
        "text": "Scope of INCIDENT RESOLUTION  AND PREVENTION ",
        "entities": [
          {
            "end": 5,
            "entity": "Scope",
            "start": 0,
            "value": "Scope"
          },
          {
            "end": 45,
            "entity": "INCIDENT RESOLUTION  AND PREVENTION ",
            "start": 9,
            "value": "INCIDENT RESOLUTION  AND PREVENTION "
          }
        ],
        "intent": "Scope of INCIDENT RESOLUTION  AND PREVENTION"
      },
      {
        "text": "List of Procedures for INCIDENT RESOLUTION  AND PREVENTION",
        "entities": [
          {
            "end": 18,
            "entity": "List of Procedures",
            "start": 0,
            "value": "List of Procedures"
          },
          {
            "end": 58,
            "entity": "INCIDENT RESOLUTION  AND PREVENTION",
            "start": 23,
            "value": "INCIDENT RESOLUTION  AND PREVENTION"
          }
        ],
        "intent": "List of Procedures for INCIDENT RESOLUTION  AND PREVENTION"
      },
      {
        "text": "Support Processes of INCIDENT RESOLUTION  AND PREVENTION",
        "entities": [
          {
            "end": 17,
            "entity": "Support Processes",
            "start": 0,
            "value": "Support Processes"
          },
          {
            "end": 56,
            "entity": "INCIDENT RESOLUTION  AND PREVENTION",
            "start": 21,
            "value": "INCIDENT RESOLUTION  AND PREVENTION"
          }
        ],
        "intent": "Support Processes of INCIDENT RESOLUTION  AND PREVENTION"
      },
      {
        "text": "Overview of Incident Resolution & Prevention",
        "entities": [
          {
            "end": 8,
            "entity": "Overview",
            "start": 0,
            "value": "Overview"
          },
          {
            "end": 44,
            "entity": "Incident Resolution & Prevention",
            "start": 12,
            "value": "Incident Resolution & Prevention"
          }
        ],
        "intent": "Overview of Incident Resolution & Prevention"
      },
      {
        "text": "Criteria to identify an Incident",
        "entities": [
          {
            "end": 8,
            "entity": "Criteria",
            "start": 0,
            "value": "Criteria"
          },
          {
            "end": 32,
            "entity": "identify an Incident",
            "start": 12,
            "value": "identify an Incident"
          }
        ],
        "intent": "Criteria to identify an Incident"
      },
      {
        "text": "Examples of Categories of Incidents",
        "entities": [
          {
            "end": 8,
            "entity": "Examples",
            "start": 0,
            "value": "Examples"
          },
          {
            "end": 35,
            "entity": "Categories of Incidents",
            "start": 12,
            "value": "Categories of Incidents"
          }
        ],
        "intent": "Examples of Categories of Incidents"
      },
      {
        "text": "Prioritization of Incidents",
        "entities": [
          {
            "end": 14,
            "entity": "Prioritization",
            "start": 0,
            "value": "Prioritization"
          },
          {
            "end": 27,
            "entity": "Incidents",
            "start": 18,
            "value": "Incidents"
          }
        ],
        "intent": "Prioritization of Incidents"
      },
      {
        "text": "Template of INCIDENT RESOLUTION  AND PREVENTION",
        "entities": [
          {
            "end": 8,
            "entity": "Template",
            "start": 0,
            "value": "Template"
          },
          {
            "end": 47,
            "entity": "INCIDENT RESOLUTION  AND PREVENTION",
            "start": 12,
            "value": "INCIDENT RESOLUTION  AND PREVENTION"
          }
        ],
        "intent": "INCIDENT RESOLUTION  AND PREVENTION"
      },
      {
        "text": "Purpose of Capacity and Availability Management Procedure",
        "entities": [
          {
            "end": 7,
            "entity": "Purpose",
            "start": 0,
            "value": "Purpose"
          },
          {
            "end": 57,
            "entity": "Capacity and Availability Management Procedure",
            "start": 11,
            "value": "Capacity and Availability Management Procedure"
          }
        ],
        "intent": "cap_avil_intro_text"
      },
      {
        "text": "Scope of Capacity and Availability Management Procedure",
        "entities": [
          {
            "end": 5,
            "entity": "Scope",
            "start": 0,
            "value": "Scope"
          },
          {
            "end": 55,
            "entity": "Capacity and Availability Management Procedure",
            "start": 9,
            "value": "Capacity and Availability Management Procedure"
          }
        ],
        "intent": "cap_avil_scope_text"
      },
      {
        "text": "Template of Capacity and Availability Management Procedure",
        "entities": [
          {
            "end": 8,
            "entity": "Template",
            "start": 0,
            "value": "Template"
          },
          {
            "end": 58,
            "entity": "Capacity and Availability Management Procedure",
            "start": 12,
            "value": "Capacity and Availability Management Procedure"
          }
        ],
        "intent": "Template of Capacity and Availability Management Procedure"
      },
      {
        "text": "Introduction for INCIDENT RESOLUTION  AND PREVENTION",
        "entities": [
          {
            "end": 12,
            "entity": "Introduction",
            "start": 0,
            "value": "Introduction"
          },
          {
            "end": 52,
            "entity": "INCIDENT RESOLUTION  AND PREVENTION",
            "start": 17,
            "value": "INCIDENT RESOLUTION  AND PREVENTION"
          }
        ],
        "intent": "INCIDENT RESOLUTION  AND PREVENTION"
      },
      {
        "text": "Scope of INCIDENT RESOLUTION  AND PREVENTION ",
        "entities": [
          {
            "end": 5,
            "entity": "Scope",
            "start": 0,
            "value": "Scope"
          },
          {
            "end": 45,
            "entity": "INCIDENT RESOLUTION  AND PREVENTION ",
            "start": 9,
            "value": "INCIDENT RESOLUTION  AND PREVENTION "
          }
        ],
        "intent": "Scope of INCIDENT RESOLUTION  AND PREVENTION"
      },
      {
        "text": "List of Procedures for INCIDENT RESOLUTION  AND PREVENTION",
        "entities": [
          {
            "end": 18,
            "entity": "List of Procedures",
            "start": 0,
            "value": "List of Procedures"
          },
          {
            "end": 58,
            "entity": "INCIDENT RESOLUTION  AND PREVENTION",
            "start": 23,
            "value": "INCIDENT RESOLUTION  AND PREVENTION"
          }
        ],
        "intent": "List of Procedures for INCIDENT RESOLUTION  AND PREVENTION"
      },
      {
        "text": "Support Processes of INCIDENT RESOLUTION  AND PREVENTION",
        "entities": [
          {
            "end": 17,
            "entity": "Support Processes",
            "start": 0,
            "value": "Support Processes"
          },
          {
            "end": 56,
            "entity": "INCIDENT RESOLUTION  AND PREVENTION",
            "start": 21,
            "value": "INCIDENT RESOLUTION  AND PREVENTION"
          }
        ],
        "intent": "Support Processes of INCIDENT RESOLUTION  AND PREVENTION"
      },
      {
        "text": "Overview of Incident Resolution & Prevention",
        "entities": [
          {
            "end": 8,
            "entity": "Overview",
            "start": 0,
            "value": "Overview"
          },
          {
            "end": 44,
            "entity": "Incident Resolution & Prevention",
            "start": 12,
            "value": "Incident Resolution & Prevention"
          }
        ],
        "intent": "Overview of Incident Resolution & Prevention"
      },
      {
        "text": "Introduction of Incident Resolution & Prevention",
        "entities": [
          {
            "end": 12,
            "entity": "Overview",
            "start": 0,
            "value": "Introduction"
          },
          {
            "end": 44,
            "entity": "Incident Resolution & Prevention",
            "start": 12,
            "value": "Incident Resolution & Prevention"
          }
        ],
        "intent": "Overview of Incident Resolution & Prevention"
      },
      {
        "text": "Purpose of Incident Resolution & Prevention",
        "entities": [
          {
            "end": 7,
            "entity": "Overview",
            "start": 0,
            "value": "Purpose"
          },
          {
            "end": 44,
            "entity": "Incident Resolution & Prevention",
            "start": 12,
            "value": "Incident Resolution & Prevention"
          }
        ],
        "intent": "Overview of Incident Resolution & Prevention"
      },
      {
        "text": "Criteria to identify an Incident",
        "entities": [
          {
            "end": 8,
            "entity": "Criteria",
            "start": 0,
            "value": "Criteria"
          },
          {
            "end": 32,
            "entity": "identify an Incident",
            "start": 12,
            "value": "identify an Incident"
          }
        ],
        "intent": "Criteria to identify an Incident"
      },
      {
        "text": "Examples of Categories of Incidents",
        "entities": [
          {
            "end": 8,
            "entity": "Examples",
            "start": 0,
            "value": "Examples"
          },
          {
            "end": 35,
            "entity": "Categories of Incidents",
            "start": 12,
            "value": "Categories of Incidents"
          }
        ],
        "intent": "Examples of Categories of Incidents"
      },
      {
        "text": "Prioritization of Incidents",
        "entities": [
          {
            "end": 14,
            "entity": "Prioritization",
            "start": 0,
            "value": "Prioritization"
          },
          {
            "end": 27,
            "entity": "Incidents",
            "start": 18,
            "value": "Incidents"
          }
        ],
        "intent": "Prioritization of Incidents"
      },
      {
        "text": "Template of INCIDENT RESOLUTION  AND PREVENTION",
        "entities": [
          {
            "end": 8,
            "entity": "Template",
            "start": 0,
            "value": "Template"
          },
          {
            "end": 47,
            "entity": "INCIDENT RESOLUTION  AND PREVENTION",
            "start": 12,
            "value": "INCIDENT RESOLUTION  AND PREVENTION"
          }
        ],
        "intent": "INCIDENT RESOLUTION  AND PREVENTION"
      },
      {
        "text": "Purpose of Capacity and Availability Management Procedure",
        "entities": [
          {
            "end": 7,
            "entity": "Purpose",
            "start": 0,
            "value": "Purpose"
          },
          {
            "end": 57,
            "entity": "Capacity and Availability Management Procedure",
            "start": 11,
            "value": "Capacity and Availability Management Procedure"
          }
        ],
        "intent": "cap_avil_intro_text"
      },
      {
        "text": "Scope of Capacity and Availability Management Procedure",
        "entities": [
          {
            "end": 5,
            "entity": "Scope",
            "start": 0,
            "value": "Scope"
          },
          {
            "end": 55,
            "entity": "Capacity and Availability Management Procedure",
            "start": 9,
            "value": "Capacity and Availability Management Procedure"
          }
        ],
        "intent": "cap_avil_scope_text"
      },
      {
        "text": "Template of Capacity and Availability Management Procedure",
        "entities": [
          {
            "end": 8,
            "entity": "Template",
            "start": 0,
            "value": "Template"
          },
          {
            "end": 58,
            "entity": "Capacity and Availability Management Procedure",
            "start": 12,
            "value": "Capacity and Availability Management Procedure"
          }
        ],
        "intent": "Template of Capacity and Availability Management Procedure"
      },
      {
        "text": "Introduction for INCIDENT RESOLUTION  AND PREVENTION",
        "entities": [
          {
            "end": 12,
            "entity": "Introduction",
            "start": 0,
            "value": "Introduction"
          },
          {
            "end": 52,
            "entity": "INCIDENT RESOLUTION  AND PREVENTION",
            "start": 17,
            "value": "INCIDENT RESOLUTION  AND PREVENTION"
          }
        ],
        "intent": "INCIDENT RESOLUTION  AND PREVENTION"
      },
      {
        "text": "Scope of INCIDENT RESOLUTION  AND PREVENTION ",
        "entities": [
          {
            "end": 5,
            "entity": "Scope",
            "start": 0,
            "value": "Scope"
          },
          {
            "end": 45,
            "entity": "INCIDENT RESOLUTION  AND PREVENTION ",
            "start": 9,
            "value": "INCIDENT RESOLUTION  AND PREVENTION "
          }
        ],
        "intent": "Scope of INCIDENT RESOLUTION  AND PREVENTION"
      },
      {
        "text": "List of Procedures for INCIDENT RESOLUTION  AND PREVENTION",
        "entities": [
          {
            "end": 18,
            "entity": "List of Procedures",
            "start": 0,
            "value": "List of Procedures"
          },
          {
            "end": 58,
            "entity": "INCIDENT RESOLUTION  AND PREVENTION",
            "start": 23,
            "value": "INCIDENT RESOLUTION  AND PREVENTION"
          }
        ],
        "intent": "List of Procedures for INCIDENT RESOLUTION  AND PREVENTION"
      },
      {
        "text": "Support Processes of INCIDENT RESOLUTION  AND PREVENTION",
        "entities": [
          {
            "end": 17,
            "entity": "Support Processes",
            "start": 0,
            "value": "Support Processes"
          },
          {
            "end": 56,
            "entity": "INCIDENT RESOLUTION  AND PREVENTION",
            "start": 21,
            "value": "INCIDENT RESOLUTION  AND PREVENTION"
          }
        ],
        "intent": "Support Processes of INCIDENT RESOLUTION  AND PREVENTION"
      },
      {
        "text": "Overview of Incident Resolution & Prevention",
        "entities": [
          {
            "end": 8,
            "entity": "Overview",
            "start": 0,
            "value": "Overview"
          },
          {
            "end": 44,
            "entity": "Incident Resolution & Prevention",
            "start": 12,
            "value": "Incident Resolution & Prevention"
          }
        ],
        "intent": "Overview of Incident Resolution & Prevention"
      },
      {
        "text": "Criteria to identify an Incident",
        "entities": [
          {
            "end": 8,
            "entity": "Criteria",
            "start": 0,
            "value": "Criteria"
          },
          {
            "end": 32,
            "entity": "identify an Incident",
            "start": 12,
            "value": "identify an Incident"
          }
        ],
        "intent": "Criteria to identify an Incident"
      },
      {
        "text": "Examples of Categories of Incidents",
        "entities": [
          {
            "end": 8,
            "entity": "Examples",
            "start": 0,
            "value": "Examples"
          },
          {
            "end": 35,
            "entity": "Categories of Incidents",
            "start": 12,
            "value": "Categories of Incidents"
          }
        ],
        "intent": "Examples of Categories of Incidents"
      },
      {
        "text": "Prioritization of Incidents",
        "entities": [
          {
            "end": 14,
            "entity": "Prioritization",
            "start": 0,
            "value": "Prioritization"
          },
          {
            "end": 27,
            "entity": "Incidents",
            "start": 18,
            "value": "Incidents"
          }
        ],
        "intent": "Prioritization of Incidents"
      },
      {
        "text": "Template of INCIDENT RESOLUTION  AND PREVENTION",
        "entities": [
          {
            "end": 8,
            "entity": "Template",
            "start": 0,
            "value": "Template"
          },
          {
            "end": 47,
            "entity": "INCIDENT RESOLUTION  AND PREVENTION",
            "start": 12,
            "value": "INCIDENT RESOLUTION  AND PREVENTION"
          }
        ],
        "intent": "INCIDENT RESOLUTION  AND PREVENTION"
      },
      {
        "text": "Purpose of Capacity and Availability Management Procedure",
        "entities": [
          {
            "end": 7,
            "entity": "Purpose",
            "start": 0,
            "value": "Purpose"
          },
          {
            "end": 57,
            "entity": "Capacity and Availability Management Procedure",
            "start": 11,
            "value": "Capacity and Availability Management Procedure"
          }
        ],
        "intent": "cap_avil_intro_text"
      },
      {
        "text": "Scope of Capacity and Availability Management Procedure",
        "entities": [
          {
            "end": 5,
            "entity": "Scope",
            "start": 0,
            "value": "Scope"
          },
          {
            "end": 55,
            "entity": "Capacity and Availability Management Procedure",
            "start": 9,
            "value": "Capacity and Availability Management Procedure"
          }
        ],
        "intent": "cap_avil_scope_text"
      },
      {
        "text": "Template of Capacity and Availability Management Procedure",
        "entities": [
          {
            "end": 8,
            "entity": "Template",
            "start": 0,
            "value": "Template"
          },
          {
            "end": 58,
            "entity": "Capacity and Availability Management Procedure",
            "start": 12,
            "value": "Capacity and Availability Management Procedure"
          }
        ],
        "intent": "Template of Capacity and Availability Management Procedure"
      },
      {
        "text": "Introduction for INCIDENT RESOLUTION  AND PREVENTION",
        "entities": [
          {
            "end": 12,
            "entity": "Introduction",
            "start": 0,
            "value": "Introduction"
          },
          {
            "end": 52,
            "entity": "INCIDENT RESOLUTION  AND PREVENTION",
            "start": 17,
            "value": "INCIDENT RESOLUTION  AND PREVENTION"
          }
        ],
        "intent": "INCIDENT RESOLUTION  AND PREVENTION"
      },
      {
        "text": "Scope of INCIDENT RESOLUTION  AND PREVENTION ",
        "entities": [
          {
            "end": 5,
            "entity": "Scope",
            "start": 0,
            "value": "Scope"
          },
          {
            "end": 45,
            "entity": "INCIDENT RESOLUTION  AND PREVENTION ",
            "start": 9,
            "value": "INCIDENT RESOLUTION  AND PREVENTION "
          }
        ],
        "intent": "Scope of INCIDENT RESOLUTION  AND PREVENTION"
      },
      {
        "text": "List of Procedures for INCIDENT RESOLUTION  AND PREVENTION",
        "entities": [
          {
            "end": 18,
            "entity": "List of Procedures",
            "start": 0,
            "value": "List of Procedures"
          },
          {
            "end": 58,
            "entity": "INCIDENT RESOLUTION  AND PREVENTION",
            "start": 23,
            "value": "INCIDENT RESOLUTION  AND PREVENTION"
          }
        ],
        "intent": "List of Procedures for INCIDENT RESOLUTION  AND PREVENTION"
      },
      {
        "text": "Support Processes of INCIDENT RESOLUTION  AND PREVENTION",
        "entities": [
          {
            "end": 17,
            "entity": "Support Processes",
            "start": 0,
            "value": "Support Processes"
          },
          {
            "end": 56,
            "entity": "INCIDENT RESOLUTION  AND PREVENTION",
            "start": 21,
            "value": "INCIDENT RESOLUTION  AND PREVENTION"
          }
        ],
        "intent": "Support Processes of INCIDENT RESOLUTION  AND PREVENTION"
      },
      {
        "text": "Support Processes of IRP",
        "entities": [
          {
            "end": 17,
            "entity": "Support Processes",
            "start": 0,
            "value": "Support Processes"
          },
          {
            "end": 24,
            "entity": "INCIDENT RESOLUTION  AND PREVENTION",
            "start": 21,
            "value": "IRP"
          }
        ],
        "intent": "Support Processes of INCIDENT RESOLUTION  AND PREVENTION"
      },
      {
        "text": "Overview of Incident Resolution & Prevention",
        "entities": [
          {
            "end": 8,
            "entity": "Overview",
            "start": 0,
            "value": "Overview"
          },
          {
            "end": 44,
            "entity": "Incident Resolution & Prevention",
            "start": 12,
            "value": "Incident Resolution & Prevention"
          }
        ],
        "intent": "Overview of Incident Resolution & Prevention"
      },
      {
        "text": "Criteria to identify an Incident",
        "entities": [
          {
            "end": 8,
            "entity": "Criteria",
            "start": 0,
            "value": "Criteria"
          },
          {
            "end": 32,
            "entity": "identify an Incident",
            "start": 12,
            "value": "identify an Incident"
          }
        ],
        "intent": "Criteria to identify an Incident"
      },
      {
        "text": "Examples of Categories of Incidents",
        "entities": [
          {
            "end": 8,
            "entity": "Examples",
            "start": 0,
            "value": "Examples"
          },
          {
            "end": 35,
            "entity": "Categories of Incidents",
            "start": 12,
            "value": "Categories of Incidents"
          }
        ],
        "intent": "Examples of Categories of Incidents"
      },
      {
        "text": "Prioritization of Incidents",
        "entities": [
          {
            "end": 14,
            "entity": "Prioritization",
            "start": 0,
            "value": "Prioritization"
          },
          {
            "end": 27,
            "entity": "Incidents",
            "start": 18,
            "value": "Incidents"
          }
        ],
        "intent": "Prioritization of Incidents"
      },
      {
        "text": "Template of INCIDENT RESOLUTION  AND PREVENTION",
        "entities": [
          {
            "end": 8,
            "entity": "Template",
            "start": 0,
            "value": "Template"
          },
          {
            "end": 47,
            "entity": "INCIDENT RESOLUTION  AND PREVENTION",
            "start": 12,
            "value": "INCIDENT RESOLUTION  AND PREVENTION"
          }
        ],
        "intent": "INCIDENT RESOLUTION  AND PREVENTION"
      },
      {
        "text": "Template of IRP",
        "entities": [
          {
            "end": 8,
            "entity": "Template",
            "start": 0,
            "value": "Template"
          },
          {
            "end": 15,
            "entity": "INCIDENT RESOLUTION  AND PREVENTION",
            "start": 12,
            "value": "IRP"
          }
        ],
        "intent": "INCIDENT RESOLUTION  AND PREVENTION"
      },
      {
        "text": "Template of irp",
        "entities": [
          {
            "end": 8,
            "entity": "Template",
            "start": 0,
            "value": "Template"
          },
          {
            "end": 15,
            "entity": "INCIDENT RESOLUTION  AND PREVENTION",
            "start": 12,
            "value": "irp"
          }
        ],
        "intent": "INCIDENT RESOLUTION  AND PREVENTION"
      }
    ],
    "entity_synonyms": []
  }
}